\relax 
\providecommand\hyper@newdestlabel[2]{}
\@nameuse{bbl@beforestart}
\catcode `"\active 
\providecommand\HyperFirstAtBeginDocument{\AtBeginDocument}
\HyperFirstAtBeginDocument{\ifx\hyper@anchor\@undefined
\global\let\oldcontentsline\contentsline
\gdef\contentsline#1#2#3#4{\oldcontentsline{#1}{#2}{#3}}
\global\let\oldnewlabel\newlabel
\gdef\newlabel#1#2{\newlabelxx{#1}#2}
\gdef\newlabelxx#1#2#3#4#5#6{\oldnewlabel{#1}{{#2}{#3}}}
\AtEndDocument{\ifx\hyper@anchor\@undefined
\let\contentsline\oldcontentsline
\let\newlabel\oldnewlabel
\fi}
\fi}
\global\let\hyper@last\relax 
\gdef\HyperFirstAtBeginDocument#1{#1}
\providecommand\HyField@AuxAddToFields[1]{}
\providecommand\HyField@AuxAddToCoFields[2]{}
\bibstyle{plain}
\babel@aux{ngerman}{}
\@input{declaration.aux}
\@writefile{toc}{\contentsline {section}{\numberline {1}Einführung}{7}{section.1}\protected@file@percent }
\@writefile{toc}{\contentsline {section}{\numberline {2}Grundlagen}{8}{section.2}\protected@file@percent }
\@writefile{toc}{\contentsline {subsection}{\numberline {2.1}Komponenten von SLURM}{8}{subsection.2.1}\protected@file@percent }
\@writefile{toc}{\contentsline {subsection}{\numberline {2.2}SLURM/SPANK Plugin}{9}{subsection.2.2}\protected@file@percent }
\@writefile{toc}{\contentsline {subsection}{\numberline {2.3}Grundstruktur SLURM Cluster}{9}{subsection.2.3}\protected@file@percent }
\@writefile{toc}{\contentsline {section}{\numberline {3}Planbasiertes Scheduling Plugin für SLURM}{9}{section.3}\protected@file@percent }
\@writefile{toc}{\contentsline {subsection}{\numberline {3.1}Recherche}{10}{subsection.3.1}\protected@file@percent }
\@writefile{toc}{\contentsline {subsection}{\numberline {3.2}Entwurf - Projektstruktur}{11}{subsection.3.2}\protected@file@percent }
\@writefile{toc}{\contentsline {subsection}{\numberline {3.3}Projektstruktur und Testumgebung}{12}{subsection.3.3}\protected@file@percent }
\@writefile{toc}{\contentsline {subsection}{\numberline {3.4}Entwurf - Kommunikation, Interface und SPANK}{14}{subsection.3.4}\protected@file@percent }
\@writefile{toc}{\contentsline {subsection}{\numberline {3.5}Entwicklung - Interface und Parameterannahme}{15}{subsection.3.5}\protected@file@percent }
\@writefile{toc}{\contentsline {subsection}{\numberline {3.6}Entwurf - Implementierung der Plugins}{17}{subsection.3.6}\protected@file@percent }
\@writefile{toc}{\contentsline {subsection}{\numberline {3.7}Entwicklung - Programmlogik}{18}{subsection.3.7}\protected@file@percent }
\@writefile{toc}{\contentsline {subsubsection}{\numberline {3.7.1}Jobannahme}{18}{subsubsection.3.7.1}\protected@file@percent }
\@writefile{toc}{\contentsline {subsubsection}{\numberline {3.7.2}Planvalidierung}{19}{subsubsection.3.7.2}\protected@file@percent }
\@writefile{toc}{\contentsline {subsubsection}{\numberline {3.7.3}Jobübergabe}{19}{subsubsection.3.7.3}\protected@file@percent }
\@writefile{toc}{\contentsline {subsubsection}{\numberline {3.7.4}Jobabarbeitung}{20}{subsubsection.3.7.4}\protected@file@percent }
\@writefile{toc}{\contentsline {subsection}{\numberline {3.8}Resultate}{21}{subsection.3.8}\protected@file@percent }
\@writefile{toc}{\contentsline {subsubsection}{\numberline {3.8.1}Plugins}{21}{subsubsection.3.8.1}\protected@file@percent }
\@writefile{toc}{\contentsline {subsubsection}{\numberline {3.8.2}Interface}{22}{subsubsection.3.8.2}\protected@file@percent }
\@writefile{lot}{\contentsline {table}{\numberline {1}{\ignorespaces Schlüsselnutzung der Anfragen und Antworten}}{22}{table.1}\protected@file@percent }
\newlabel{tab:interface_keys}{{1}{22}{Schlüsselnutzung der Anfragen und Antworten}{table.1}{}}
\@writefile{lot}{\contentsline {table}{\numberline {2}{\ignorespaces Statuscodes}}{22}{table.2}\protected@file@percent }
\newlabel{tab:interface_statuscodes}{{2}{22}{Statuscodes}{table.2}{}}
\bibdata{bibliography}
\@writefile{lot}{\contentsline {table}{\numberline {3}{\ignorespaces Instruktionen}}{23}{table.3}\protected@file@percent }
\newlabel{tab:interface_instructions}{{3}{23}{Instruktionen}{table.3}{}}
\@writefile{toc}{\contentsline {section}{\numberline {4}Konklusion}{23}{section.4}\protected@file@percent }
\@writefile{toc}{\contentsline {section}{Literaturverzeichnis}{23}{section*.3}\protected@file@percent }
